{
  "persona": {
    "type": "object",
    "struct": {
      "nombre": {
        "type": "string",
        "title": "Nombre"
      },
      "apellido": {
        "type": "string",
        "title": "Apellido"
      },
      "edad": {
        "type": "number",
        "title": "Edad"
      }
    }
  },
  "pedido": {
    "type": "object",
    "struct": {
      "observaciones": {
        "type": "text",
        "title": "Observaciones"
      },
      "envio": {
        "type": "boolean",
        "title": "Envío de correos"
      },
      "ciudad": {
        "type": "list",
        "title": "Ciudad",
        "values": [{
            "value": "bog",
            "text": "Bogotá"
          },
          {
            "value": "cal",
            "text": "Cali"
          },
          {
            "value": "car",
            "text": "Cartagena"
          },
          {
            "value": "pas",
            "text": "Pasto"
          },
          {
            "value": "buc",
            "text": "Bucaramanga"
          }
        ]
      }
    }
  },
  "items": {
    "type": "array",
    "arr": [{
      "item": {
        "type": "object",
        "struct": {
          "detalle": {
            "type": "string",
            "title": "Item"
          },
          "valor": {
            "type": "number",
            "title": "Valor"
          },
          "cantidad": {
            "type": "number",
            "title": "Cantidad"
          }
        }
      }
    }]
  }
}