{
  "anciliaryData": "ANCILIARYDATA",
  "lifeFormUnstructured": {
    "type": "text",
    "title": "Life Form Unstructured"
  },
  "lifeFormAtomized": {
    "type": "array",
    "title": "Life Form Atomized",
    "arr": [{
      "item": {
        "type": "object",
        "struct": {
          "purpose": {
            "type": "text",
            "title": "Propósito"
          },
          "type": {
            "type": "list",
            "title": "Mecanismo de dispersión",
            "values": [{
                "value": "Zoocoria",
                "text": "Zoocoria"
              },
              {
                "value": "Anemocoria",
                "text": "Anemocoria"
              },
              {
                "value": "Hidrocoria",
                "text": "Hidrocoria"
              },
              {
                "value": "Barocoria",
                "text": "Barocoria"
              },
              {
                "value": "Autocoria",
                "text": "Autocoria"
              }
            ]
          },
          "structureDispersed": {
            "type": "list",
            "title": "Estructura de dispersión",
            "values": [{
                "value": "Semilla",
                "text": "Semilla"
              },
              {
                "value": "Fruta",
                "text": "Fruta"
              },
              {
                "value": "Estructura vegetativa",
                "text": "Estructura vegetativa"
              },
              {
                "value": "Esporas",
                "text": "Esporas"
              },
              {
                "value": "Gametos",
                "text": "Gametos"
              },
              {
                "value": "Huevos",
                "text": "Huevos"
              },
              {
                "value": "Crías e individuos",
                "text": "Crías e individuos"
              }
            ]
          },
          "measurementValue": {
            "type": "text",
            "title": "Distancia"
          },
          "measurementUnit": {
            "type": "list",
            "title": "Unidad",
            "values": [{
                "value": "Centímetros (cm)",
                "text": "Centímetros (cm)"
              },
              {
                "value": "Metros (m)",
                "text": "Metros (m)"
              },
              {
                "value": "Kilómetros (Km)",
                "text": "Kilómetros (Km)"
              }
            ]
          }
        }
      }
    }]
  }
}