{
  "anciliaryData": "ANCILIARYDATA",
  "invasivenessUnstructured": {"type":"text", "title":"Invasiveness Unstructured"},
  "invasivenessAtomized": {"type":"array", "title":"Invasiveness Atomized", "arr":[
    {
      "item": {"type":"object", "struct":{
        "origin" : {"type":"list", "title":"Origen",  "values": [
            {"value":"Desconocido", "text":"Desconocido"},
            {"value":"Nativo", "text":"Nativo"},
            {"value":"Exótico", "text":"Exótico"}
          ]},
        "presence" : {"type":"list", "title":"Presencia",  "values": [
            {"value":"Desconocida", "text":"Desconocida"},
            {"value":"Ausente", "text":"Ausente"},
            {"value":"Casual", "text":"Casual"},
            {"value":"Presente", "text":"Presente"},
            {"value":"Reportada", "text":"Reportada"}
          ]},
        "persistence" : {"type":"list", "title":"Persistencia",  "values": [
            {"value":"Desconocida", "text":"Desconocida"},
            {"value":"Extinta", "text":"Extinta"},
            {"value":"Transitoria", "text":"Transitoria"},
            {"value":"Temporal", "text":"Temporal"},
            {"value":"Persitente", "text":"Persitente"}
          ]},
          
        "distribution2" : {"type":"list", "multiple": true, "title":"Distribución 2",  "values": [
          {"value":"Desconocida", "text":"Desconocida"},
          {"value":"Localizada", "text":"Localizada"},
          {"value":"Moderada", "text":"Moderada"},
          {"value":"Extendida", "text":"Extendida"}
        ]},
        "distribution" : {"type":"array", "title":"Distribución A", "arr":[
            {
              "item": {"type":"list", "title":"Distribución B",  "values": [
              {"value":"Desconocida", "text":"Desconocida"},
              {"value":"Localizada", "text":"Localizada"},
              {"value":"Moderada", "text":"Moderada"},
              {"value":"Extendida", "text":"Extendida"}
            ]}}
          ]},
        "harmful" : {"type":"list", "title":"Daño",  "values": [
            {"value":"Desconocido", "text":"Desconocido"},
            {"value":"No", "text":"No"},
            {"value":"Potencial", "text":"Potencial"},
            {"value":"Si", "text":"Si"}
          ]},
          
        "introductionDate": {"type":"date", "title":"Fecha de introducción"},
          
        "harmful" : {"type":"list", "title":"Precisión de la fecha de introducción",  "values": [
            {"value":"Día", "text":"Día"},
            {"value":"Mes", "text":"Mes"},
            {"value":"Año", "text":"Año"},
            {"value":"Desconocido", "text":"Desconocido"}
          ]},

        "harmful" : {"type":"list", "title":"Código de país",  "values": [
          
          ]},
        "harmful" : {"type":"list", "title":"Departamento",  "values": [
          ]},
        "harmful" : {"type":"list", "title":"Municipio",  "values": [
          ]},
          
        "localityName": {"type":"string", "title":"Localidad"},

        "harmful" : {"type":"list", "title":"Abundancia",  "values": [
            {"value":"Desconocida", "text":"Desconocida"},
            {"value":"Cero", "text":"Cero"},
            {"value":"Rara", "text":"Rara"},
            {"value":"Común", "text":"Común"},
            {"value":"Dominante", "text":"Dominante"},
            {"value":"Monocultivo", "text":"Monocultivo"}
          ]},
        "harmful3" : {"type":"list", "title":"Tendencia",  "values": [
            {"value":"Desconocida", "text":"Desconocida"},
            {"value":"En dismunción", "text":"En dismunción"},
            {"value":"Estable", "text":"Estable"},
            {"value":"En expansión", "text":"En expansión"}
          ]},
        "speedPropagation" : {"type":"list", "title":"Velocidad de propagación",  "values": [
            {"value":"Desconocida", "text":"Desconocida"},
            {"value":"Lenta", "text":"Lenta"},
            {"value":"Moderada", "text":"Moderada"},
            {"value":"Rápida", "text":"Rápida"}
          ]},
        "regulationState" : {"type":"list", "title":"Estado de regulación",  "values": [
            {"value":"Desconocida", "text":"Desconocida"},
            {"value":"No considerado", "text":"No considerado"},
            {"value":"Restringido", "text":"Restringido"},
            {"value":"Prohibida", "text":"Prohibida"}
          ]},
 

        "observations" : {"type":"text", "title":"Observaciones"},

        "localityType" : {"type":"list", "title":"Tipo de localidad",  "values": [
            {"value":"Desconocida", "text":"Desconocida"},
            {"value":"Departamento", "text":"Departamento"},
            {"value":"Municipio", "text":"Municipio"},
            {"value":"Cuenca", "text":"Cuenca"}
          ]},

        "whatImpact" : {"type":"text", "title":"Impacto"},
        "vector" : {"type":"text", "title":"Vector"},
        "route" : {"type":"text", "title":"Ruta"},
        "impactTarget" : {"type":"text", "title":"Objetivo del impacto"},
        "impactMechanism" : {"type":"text", "title":"Mecanismo de impacto"}

      }}
    }
  ]}
}
